Predicting Sales Win or Lose
…
var <- colnames(sales_win_loss)
var_type <- unlist(map(sales_win_loss, class))
as_tibble(cbind(c(var, var_type, var_descriptions)))

## # A tibble: 63 x 1
##    V1                
##    <chr>             
##  1 ID                
##  2 SuppliesSubgroup  
##  3 SuppliesGroup     
##  4 Region            
##  5 Route             
##  6 ElapsedDays       
##  7 Result            
##  8 SalesStageCount   
##  9 TotalDaysClosing  
## 10 TotalDaysQualified
## # ... with 53 more rows

as_data_frame(cbind(c(1:length(var)), var, var_type, var_descriptions))

## Warning in cbind(c(1:length(var)), var, var_type, var_descriptions): number
## of rows of result is not a multiple of vector length (arg 4)

## # A tibble: 22 x 4
##    V1    var           var_type var_descriptions                          
##    <chr> <chr>         <chr>    <chr>                                     
##  1 1     ID            integer  A random number assigned to the opportuni~
##  2 2     SuppliesSubg~ charact~ Supplies Subgroup                         
##  3 3     SuppliesGroup charact~ Supplies Group                            
##  4 4     Region        charact~ Region                                    
##  5 5     Route         charact~ Route to market                           
##  6 6     ElapsedDays   integer  The number of days between the change in ~
##  7 7     Result        charact~ A closed opportunity. Values is either wo~
##  8 8     SalesStageCo~ integer  A count of number of times an opportunity~
##  9 9     TotalDaysClo~ integer  Total days from Identified to Gained Agre~
## 10 10    TotalDaysQua~ integer  Total days from Identified to Qualified A~
## # ... with 12 more rows

as_tibble(sales_win_loss)

## # A tibble: 78,025 x 22
##        ID SuppliesSubgroup SuppliesGroup Region Route ElapsedDays Result
##     <int> <chr>            <chr>         <chr>  <chr>       <int> <chr> 
##  1 1.64e6 Exterior Access~ Car Accessor~ North~ Fiel~          76 Won   
##  2 1.66e6 Exterior Access~ Car Accessor~ Pacif~ Rese~          63 Loss  
##  3 1.67e6 Motorcycle Parts Performance ~ Pacif~ Rese~          24 Won   
##  4 1.68e6 Shelters & RV    Performance ~ Midwe~ Rese~          16 Loss  
##  5 1.69e6 Exterior Access~ Car Accessor~ Pacif~ Rese~          69 Loss  
##  6 1.69e6 Shelters & RV    Performance ~ Pacif~ Rese~          89 Loss  
##  7 1.94e6 Garage & Car Ca~ Car Accessor~ Pacif~ Fiel~         111 Won   
##  8 1.95e6 Exterior Access~ Car Accessor~ Pacif~ Fiel~          82 Loss  
##  9 2.00e6 Batteries & Acc~ Car Accessor~ North~ Fiel~          68 Loss  
## 10 2.05e6 Exterior Access~ Car Accessor~ Pacif~ Rese~          18 Loss  
## # ... with 78,015 more rows, and 15 more variables: SalesStageCount <int>,
## #   TotalDaysClosing <int>, TotalDaysQualified <int>, Opportunity <int>,
## #   ClientSizeRev <int>, ClientSizeCount <int>, Revenue <int>,
## #   Competitor <chr>, RDaysIdentified <dbl>, RDaysValidated <dbl>,
## #   RDaysQualified <dbl>, DealSize <int>, ClientSizeRev2 <chr>,
## #   ClientSizeCount2 <chr>, Revenue2 <chr>
…
